Lab1/pico/simulation/icarus/xtop.vcd
$date
	Wed Sep 25 17:25:37 2019
$end
$version
	Icarus Verilog
$end
$timescale
	1ps
$end
$scope module xtop_tb $end
$var wire 32 ! r0 [31:0] $end
$var wire 32 " r1 [31:0] $end
$var wire 32 # r10 [31:0] $end
$var wire 32 $ r11 [31:0] $end
$var wire 32 % r12 [31:0] $end
$var wire 32 & r13 [31:0] $end
$var wire 32 ' r14 [31:0] $end
$var wire 32 ( r15 [31:0] $end
$var wire 32 ) r2 [31:0] $end
$var wire 32 * r3 [31:0] $end
$var wire 32 + r4 [31:0] $end
$var wire 32 , r5 [31:0] $end
$var wire 32 - r6 [31:0] $end
$var wire 32 . r7 [31:0] $end
$var wire 32 / r8 [31:0] $end
$var wire 32 0 r9 [31:0] $end
$var wire 1 1 trap $end
$var wire 1 2 par_we $end
$var wire 32 3 par_out [31:0] $end
$var wire 14 4 par_addr [13:0] $end
$var reg 1 5 clk $end
$var reg 32 6 par_in [31:0] $end
$var reg 1 7 rst $end
$var integer 32 8 k [31:0] $end
$var integer 32 9 start_time [31:0] $end
$scope module uut $end
$var wire 1 5 clk $end
$var wire 32 : data_to_LED [31:0] $end
$var wire 32 ; ext_data_to_rd [31:0] $end
$var wire 32 < par_in [31:0] $end
$var wire 32 = par_out [31:0] $end
$var wire 1 > par_re $end
$var wire 1 2 par_we $end
$var wire 1 7 rst $end
$var wire 1 1 trap $end
$var wire 1 ? regf_sel $end
$var wire 32 @ regf_data_to_rd [31:0] $end
$var wire 14 A pc [13:0] $end
$var wire 14 B par_addr [13:0] $end
$var wire 1 C mem_sel $end
$var wire 32 D mem_data_to_rd [31:0] $end
$var wire 32 E instruction [31:0] $end
$var wire 1 F ext_sel $end
$var wire 1 G data_we $end
$var wire 32 H data_to_wr [31:0] $end
$var wire 32 I data_to_rd [31:0] $end
$var wire 1 J data_sel $end
$var wire 32 K data_out_LED [31:0] $end
$var wire 15 L data_addr [14:0] $end
$var wire 1 M cprt_sel $end
$var wire 1 N LED_sel $end
$scope module LED $end
$var wire 1 5 clk $end
$var wire 8 O data_in [7:0] $end
$var wire 1 P sel $end
$var reg 8 Q LEDpin [7:0] $end
$upscope $end
$scope module addr_decoder $end
$var wire 32 R ext_data_to_rd [31:0] $end
$var wire 1 J sel $end
$var wire 32 S regf_data_to_rd [31:0] $end
$var wire 32 T mem_data_to_rd [31:0] $end
$var wire 15 U addr [14:0] $end
$var reg 1 N LED_sel $end
$var reg 1 M cprt_sel $end
$var reg 32 V data_to_rd [31:0] $end
$var reg 1 F ext_sel $end
$var reg 1 C mem_sel $end
$var reg 1 ? regf_sel $end
$var reg 1 1 trap_sel $end
$upscope $end
$scope module controller $end
$var wire 1 W alu_arith_ops $end
$var wire 1 X alu_imm_ops $end
$var wire 1 Y alu_logic_ops $end
$var wire 1 Z alu_mem_ops $end
$var wire 1 [ alu_ops $end
$var wire 32 \ and_res [31:0] $end
$var wire 1 ] branch_ops $end
$var wire 1 5 clk $end
$var wire 1 ^ imm_ops $end
$var wire 1 _ load_imm_ops $end
$var wire 1 ` load_mem_ops $end
$var wire 1 a load_ops $end
$var wire 32 b mem_data_from [31:0] $end
$var wire 32 c mem_data_to [31:0] $end
$var wire 1 J mem_sel $end
$var wire 1 G mem_we $end
$var wire 1 7 rst $end
$var wire 1 d store_mem_ops $end
$var wire 32 e xor_res [31:0] $end
$var wire 32 f operand [31:0] $end
$var wire 4 g opcode [3:0] $end
$var wire 32 h instruction [31:0] $end
$var wire 32 i imm [31:0] $end
$var wire 1 j carry_n_1 $end
$var wire 1 k carry_n $end
$var wire 33 l adder_res_2 [32:0] $end
$var wire 32 m adder_res_1 [31:0] $end
$var reg 1 n alu_carry $end
$var reg 1 o alu_negative $end
$var reg 1 p alu_overflow $end
$var reg 33 q alu_result [32:0] $end
$var reg 15 r mem_addr [14:0] $end
$var reg 32 s operand_int [31:0] $end
$var reg 14 t pc [13:0] $end
$var reg 32 u regA [31:0] $end
$var reg 32 v regB [31:0] $end
$var reg 32 w regC [31:0] $end
$upscope $end
$scope module cprint $end
$var wire 1 5 clk $end
$var wire 8 x data_in [7:0] $end
$var wire 1 y sel $end
$upscope $end
$scope module ram $end
$var wire 1 5 clk $end
$var wire 14 z data_addr [13:0] $end
$var wire 14 { data_addr_int [13:0] $end
$var wire 1 | data_en_int $end
$var wire 32 } data_in [31:0] $end
$var wire 32 ~ data_in_int [31:0] $end
$var wire 32 !" data_out [31:0] $end
$var wire 1 C data_sel $end
$var wire 1 G data_we $end
$var wire 1 "" data_we_int $end
$var wire 1 #" instr_en $end
$var wire 14 $" pc [13:0] $end
$var reg 32 %" data_out_int [31:0] $end
$var reg 32 &" instruction [31:0] $end
$upscope $end
$scope module regf $end
$var wire 4 '" addr [3:0] $end
$var wire 1 5 clk $end
$var wire 32 (" data_in [31:0] $end
$var wire 1 ? sel $end
$var wire 1 G we $end
$var wire 32 )" data_out [31:0] $end
$upscope $end
$upscope $end
$upscope $end
$enddefinitions $end
#0
$dumpvars
bx )"
bx ("
bx '"
bx &"
bx %"
bx $"
1#"
x""
bx !"
bx ~
bx }
x|
bx {
bx z
xy
bx x
bx w
bx v
bx u
bx t
b0 s
bx r
b0 q
0p
0o
0n
bx m
bx l
xk
xj
bx i
bx h
bx g
b0 f
bx e
xd
bx c
b0 b
xa
x`
x_
x^
x]
b0 \
x[
xZ
xY
xX
xW
b0 V
bx U
bx T
bx S
b0 R
bx Q
xP
bz O
xN
xM
bx L
b0xxxxxxxx K
xJ
b0 I
bx H
xG
xF
bx E
bx D
xC
bx B
bx A
bx @
x?
x>
bx =
b0 <
b0 ;
bz :
bx 9
bx 8
07
b0 6
15
bx 4
bx 3
x2
x1
bx 0
bx /
bx .
bx -
bx ,
bx +
bx *
bx )
bx (
bx '
bx &
bx %
bx $
bx #
bx "
bx !
$end
#5000
05
#10000
15
#11000
0j
b0 m
0k
b0 e
b0 x
b0 A
b0 t
b0 $"
b0 l
b0 ~
b0 3
b0 =
b0 H
b0 c
b0 }
b0 ("
b0 u
b0 v
b0 w
17
#15000
05
#20000
b1 m
b1 e
0J
0>
b0 @
b0 S
b0 )"
b1 l
b1 f
b1 '"
b1 {
b1 z
b1 4
b1 B
01
0F
0M
0?
0|
0C
b1 s
b1 L
b1 U
b1 r
0Z
0[
0P
0y
02
1a
1^
b1 i
0]
0Y
0W
0X
0""
0G
0d
0`
1_
b110 g
b1100000000000000000000000000001 E
b1100000000000000000000000000001 h
b1100000000000000000000000000001 &"
15
#21000
b10000 8
b10101 9
07
#25000
05
#30000
b10 m
b0 e
b1 \
b1 x
b1 A
b1 t
b1 $"
b10 l
b1 ~
b1 3
b1 =
b1 H
b1 c
b1 }
b1 ("
b1 u
15
#35000
05
#40000
bx I
bx V
bx b
bx @
bx S
bx )"
1?
1J
b1 m
b1 e
b0 \
b1 l
b0 f
b0 '"
b0 {
b0 z
b0 4
b0 B
b0 s
b100000000000000 L
b100000000000000 U
b100000000000000 r
xP
0a
0^
b100000000000000 i
1""
1G
1d
0_
b1001 g
b10010000000000000100000000000000 E
b10010000000000000100000000000000 h
b10010000000000000100000000000000 &"
b10 A
b10 t
b10 $"
15
#45000
05
#50000
1j
0J
b10000000000000000000000000000000 m
1k
b11111111111111111111111111111110 e
b1 \
b100000000000000000000000000000000 l
b11111111111111111111111111111111 f
b1111 '"
b11111111111111 {
b11111111111111 z
b11111111111111 4
b11111111111111 B
01
0?
b11111111111111111111111111111111 s
b111111111111111 L
b111111111111111 U
b111111111111111 r
0P
1a
1^
b0 I
b0 V
b0 b
b11111111111111111111111111111111 i
0""
0G
0d
1_
b0 @
b0 S
b0 )"
b110 g
b1 !
b1101111111111111111111111111111 E
b1101111111111111111111111111111 h
b1101111111111111111111111111111 &"
b11 A
b11 t
b11 $"
15
#55000
05
#60000
1j
0p
1k
b11111111111111111111111111111111 f
1o
1n
b111111111111111111111111111111110 q
1[
b11111111111111111111111111111111 s
1W
0a
1X
0_
b0 g
b11111111111111111111111111111110 m
b0 e
b11111111111111111111111111111111 \
b11111111 x
b1111111111111111111111111111 E
b1111111111111111111111111111 h
b1111111111111111111111111111 &"
b111111111111111111111111111111110 l
b11111111111111111111111111111111 ~
b11111111111111111111111111111111 3
b11111111111111111111111111111111 =
b11111111111111111111111111111111 H
b11111111111111111111111111111111 c
b11111111111111111111111111111111 }
b11111111111111111111111111111111 ("
b11111111111111111111111111111111 u
b100 A
b100 t
b100 $"
15
#65000
05
#70000
b101 f
b1 '"
b10001 {
b10001 z
b10001 4
b10001 B
0[
b100000000010001 L
b100000000010001 U
b100000000010001 r
0Z
0W
0^
1a
b100000000010001 i
0X
1`
b1000 g
b10000000000000000000000000000011 m
0o
0n
b0 q
b11111111111111111111111111111011 e
b100 \
b11111110 x
b101 s
b10000000000000000100000000010001 E
b10000000000000000100000000010001 h
b10000000000000000100000000010001 &"
b101 A
b101 t
b101 $"
b100000000000000000000000000000011 l
b11111111111111111111111111111110 ~
b11111111111111111111111111111110 3
b11111111111111111111111111111110 =
b11111111111111111111111111111110 H
b11111111111111111111111111111110 c
b11111111111111111111111111111110 }
b11111111111111111111111111111110 ("
b11111111111111111111111111111110 u
b101 w
15
#75000
05
#80000
b1 I
b1 V
b1 b
b1 @
b1 S
b1 )"
1?
b1 f
1J
b0 '"
b0 {
b0 z
b0 4
b0 B
1[
b1 s
b100000000000000 L
b100000000000000 U
b100000000000000 r
1Z
0a
b100000000000000 i
1Y
0`
0j
b1 q
b100 g
b110 m
0k
b100 e
b1 \
b101 x
b1000000000000000100000000000000 E
b1000000000000000100000000000000 h
b1000000000000000100000000000000 &"
b110 l
b101 ~
b101 3
b101 =
b101 H
b101 c
b101 }
b101 ("
b101 u
b110 A
b110 t
b110 $"
15
#85000
05
#90000
b0 \
0J
b0 f
b0 I
b0 V
b0 b
b0 @
b0 S
b0 )"
b1100 '"
b1100 {
b1100 z
b1100 4
b1100 B
0|
0C
0?
1]
0[
b1100 L
b1100 U
b1100 r
0Z
b1100 i
0Y
b1110 g
b1 m
b0 q
b1 e
b1 x
b0 s
b11100000000000000000000000001100 E
b11100000000000000000000000001100 h
b11100000000000000000000000001100 &"
b111 A
b111 t
b111 $"
b1 l
b1 ~
b1 3
b1 =
b1 H
b1 c
b1 }
b1 ("
b1 u
b0 w
15
#95000
05
#100000
b1100011 f
b11 '"
b1100011 {
b1100011 z
b1100011 4
b1100011 B
0]
b1100011 s
b1100011 L
b1100011 U
b1100011 r
1a
1^
b1100011 i
1_
b110 g
b1100011 m
b1100011 e
b0 x
b1100000000000000000000001100011 E
b1100000000000000000000001100011 h
b1100000000000000000000001100011 &"
b1100011 l
b0 ~
b0 3
b0 =
b0 H
b0 c
b0 }
b0 ("
b0 u
b1100 A
b1100 t
b1100 $"
15
#105000
05
#110000
b100 f
b100 '"
b100 {
b100 z
b100 4
b100 B
b100 s
b100 L
b100 U
b100 r
b100 i
b1100111 m
b1100111 e
b0 \
b1100011 x
b1100000000000000000000000000100 E
b1100000000000000000000000000100 h
b1100000000000000000000000000100 &"
b1101 A
b1101 t
b1101 $"
b1100111 l
b1100011 ~
b1100011 3
b1100011 =
b1100011 H
b1100011 c
b1100011 }
b1100011 ("
b1100011 u
15
#115000
05
#120000
b1 I
b1 V
b1 b
b1 @
b1 S
b1 )"
1?
1J
b0 f
b0 '"
b0 {
b0 z
b0 4
b0 B
b0 s
b100000000000000 L
b100000000000000 U
b100000000000000 r
xP
0a
0^
b100000000000000 i
1""
1G
1d
0_
b1001 g
b100 m
b100 e
b0 \
b100 x
b10010000000000000100000000000000 E
b10010000000000000100000000000000 h
b10010000000000000100000000000000 &"
b100 l
b100 ~
b100 3
b100 =
b100 H
b100 c
b100 }
b100 ("
b100 u
b1110 A
b1110 t
b1110 $"
15
#125000
05
#130000
1j
0J
b10000000000000000000000000000011 m
1k
b11111111111111111111111111111011 e
b100 \
b100000000000000000000000000000011 l
b11111111111111111111111111111111 f
b1111 '"
b11111111111111 {
b11111111111111 z
b11111111111111 4
b11111111111111 B
01
0?
b11111111111111111111111111111111 s
b111111111111111 L
b111111111111111 U
b111111111111111 r
0P
1a
1^
b0 I
b0 V
b0 b
b11111111111111111111111111111111 i
0""
0G
0d
1_
b0 @
b0 S
b0 )"
b110 g
b100 !
b1101111111111111111111111111111 E
b1101111111111111111111111111111 h
b1101111111111111111111111111111 &"
b1111 A
b1111 t
b1111 $"
15
#135000
05
#140000
1j
0p
1k
b11111111111111111111111111111111 f
1o
1n
b111111111111111111111111111111110 q
1[
b11111111111111111111111111111111 s
1W
0a
1X
0_
b0 g
b11111111111111111111111111111110 m
b0 e
b11111111111111111111111111111111 \
b11111111 x
b1111111111111111111111111111 E
b1111111111111111111111111111 h
b1111111111111111111111111111 &"
b111111111111111111111111111111110 l
b11111111111111111111111111111111 ~
b11111111111111111111111111111111 3
b11111111111111111111111111111111 =
b11111111111111111111111111111111 H
b11111111111111111111111111111111 c
b11111111111111111111111111111111 }
b11111111111111111111111111111111 ("
b11111111111111111111111111111111 u
b10000 A
b10000 t
b10000 $"
15
#145000
05
#150000
b101 f
b1 '"
b10001 {
b10001 z
b10001 4
b10001 B
0[
b100000000010001 L
b100000000010001 U
b100000000010001 r
0Z
0W
0^
1a
b100000000010001 i
0X
1`
b1000 g
b10000000000000000000000000000011 m
0o
0n
b0 q
b11111111111111111111111111111011 e
b100 \
b11111110 x
b101 s
b10000000000000000100000000010001 E
b10000000000000000100000000010001 h
b10000000000000000100000000010001 &"
b10001 A
b10001 t
b10001 $"
b100000000000000000000000000000011 l
b11111111111111111111111111111110 ~
b11111111111111111111111111111110 3
b11111111111111111111111111111110 =
b11111111111111111111111111111110 H
b11111111111111111111111111111110 c
b11111111111111111111111111111110 }
b11111111111111111111111111111110 ("
b11111111111111111111111111111110 u
b101 w
15
#155000
05
#160000
b100 I
b100 V
b100 b
b100 @
b100 S
b100 )"
1?
b100 f
1J
b0 '"
b0 {
b0 z
b0 4
b0 B
1[
b100 s
b100000000000000 L
b100000000000000 U
b100000000000000 r
1Z
0a
b100000000000000 i
1Y
0`
0j
b100 q
b100 g
b1001 m
0k
b1 e
b100 \
b101 x
b1000000000000000100000000000000 E
b1000000000000000100000000000000 h
b1000000000000000100000000000000 &"
b1001 l
b101 ~
b101 3
b101 =
b101 H
b101 c
b101 }
b101 ("
b101 u
b10010 A
b10010 t
b10010 $"
15
#165000
05
#170000
b0 \
0J
b0 f
b0 I
b0 V
b0 b
b0 @
b0 S
b0 )"
b1000 '"
b11000 {
b11000 z
b11000 4
b11000 B
0|
0C
0?
1]
0[
b11000 L
b11000 U
b11000 r
0Z
b11000 i
0Y
b1110 g
b100 m
b0 q
b100 e
b100 x
b0 s
b11100000000000000000000000011000 E
b11100000000000000000000000011000 h
b11100000000000000000000000011000 &"
b10011 A
b10011 t
b10011 $"
b100 l
b100 ~
b100 3
b100 =
b100 H
b100 c
b100 }
b100 ("
b100 u
b0 w
15
#175000
05
#180000
b10 \
b1101110 f
b1110 '"
b1101110 {
b1101110 z
b1101110 4
b1101110 B
0]
b1101110 s
b1101110 L
b1101110 U
b1101110 r
1a
1^
b1101110 i
1_
b110 g
b1110001 m
b1101101 e
b11 x
b1100000000000000000000001101110 E
b1100000000000000000000001101110 h
b1100000000000000000000001101110 &"
b1110001 l
b11 ~
b11 3
b11 =
b11 H
b11 c
b11 }
b11 ("
b11 u
b11000 A
b11000 t
b11000 $"
15
#185000
05
#190000
b10 f
b10 '"
b10 {
b10 z
b10 4
b10 B
b10 s
b10 L
b10 U
b10 r
b10 i
b1110000 m
b1101100 e
b10 \
b1101110 x
b1100000000000000000000000000010 E
b1100000000000000000000000000010 h
b1100000000000000000000000000010 &"
b11001 A
b11001 t
b11001 $"
b1110000 l
b1101110 ~
b1101110 3
b1101110 =
b1101110 H
b1101110 c
b1101110 }
b1101110 ("
b1101110 u
15
#195000
05
#200000
b100 I
b100 V
b100 b
b100 @
b100 S
b100 )"
1?
1J
b0 \
b0 f
b0 '"
b0 {
b0 z
b0 4
b0 B
b0 s
b100000000000000 L
b100000000000000 U
b100000000000000 r
xP
0a
0^
b100000000000000 i
1""
1G
1d
0_
b1001 g
b10 m
b10 e
b10 x
b10010000000000000100000000000000 E
b10010000000000000100000000000000 h
b10010000000000000100000000000000 &"
b10 l
b10 ~
b10 3
b10 =
b10 H
b10 c
b10 }
b10 ("
b10 u
b11010 A
b11010 t
b11010 $"
15
#205000
05
#210000
0J
b10000000000000001 m
b1111111111111101 e
b10 \
b10000000000000001 l
b1111111111111111 f
b1111 '"
b11111111111111 {
b11111111111111 z
b11111111111111 4
b11111111111111 B
01
0?
b1111111111111111 s
b111111111111111 L
b111111111111111 U
b111111111111111 r
0P
1a
1^
b0 I
b0 V
b0 b
b1111111111111111 i
0""
0G
0d
1_
b0 @
b0 S
b0 )"
b110 g
b10 !
b1100000000000001111111111111111 E
b1100000000000001111111111111111 h
b1100000000000001111111111111111 &"
b11011 A
b11011 t
b11011 $"
15
#215000
05
#220000
1j
b1111111111111111111111111111111 f
b1111111111111111111111111111111 s
b1111111111111111111111111111111 i
b111 g
b10000000000000001111111111111110 m
b1111111111111110000000000000000 e
b1111111111111111 \
b11111111 x
b1110000000000000111111111111111 E
b1110000000000000111111111111111 h
b1110000000000000111111111111111 &"
b10000000000000001111111111111110 l
b1111111111111111 ~
b1111111111111111 3
b1111111111111111 =
b1111111111111111 H
b1111111111111111 c
b1111111111111111 }
b1111111111111111 ("
b1111111111111111 u
b11100 A
b11100 t
b11100 $"
15
#225000
05
#230000
bx I
bx V
bx b
bx @
bx S
bx )"
1?
0j
1J
b0 f
b1 '"
b1 {
b1 z
b1 4
b1 B
b0 s
b100000000000001 L
b100000000000001 U
b100000000000001 r
xP
0a
0^
b100000000000001 i
1""
1G
1d
0_
b1001 g
b1111111111111111111111111111111 m
b1111111111111111111111111111111 e
b0 \
b10010000000000000100000000000001 E
b10010000000000000100000000000001 h
b10010000000000000100000000000001 &"
b11101 A
b11101 t
b11101 $"
b1111111111111111111111111111111 l
b1111111111111111111111111111111 ~
b1111111111111111111111111111111 3
b1111111111111111111111111111111 =
b1111111111111111111111111111111 H
b1111111111111111111111111111111 c
b1111111111111111111111111111111 }
b1111111111111111111111111111111 ("
b1111111111111111111111111111111 u
15
#235000
05
#240000
1p
1j
b11111111111111111111111111111110 m
b0 e
b1111111111111111111111111111111 \
1o
1?
b11111111111111111111111111111110 l
b1111111111111111111111111111111 f
1J
1Z
b1111111111111111111111111111111 s
1[
b11111111111111111111111111111110 q
1W
0P
0""
0G
0d
b1111111111111111111111111111111 I
b1111111111111111111111111111111 V
b1111111111111111111111111111111 b
b1 g
b1111111111111111111111111111111 @
b1111111111111111111111111111111 S
b1111111111111111111111111111111 )"
b10000000000000100000000000001 E
b10000000000000100000000000001 h
b10000000000000100000000000001 &"
b1111111111111111111111111111111 "
b11110 A
b11110 t
b11110 $"
15
#245000
05
#250000
b0 I
b0 V
b0 b
b0 @
b0 S
b0 )"
0Z
b110 f
0J
b10001 {
b10001 z
b10001 4
b10001 B
01
0?
0[
b100000000010001 L
b100000000010001 U
b100000000010001 r
0W
1a
b100000000010001 i
1`
0n
b1000 g
b10000000000000000000000000000100 m
1k
0p
0o
b0 q
b11111111111111111111111111111000 e
b110 \
b11111110 x
b110 s
b10000000000000000100000000010001 E
b10000000000000000100000000010001 h
b10000000000000000100000000010001 &"
b11111 A
b11111 t
b11111 $"
b100000000000000000000000000000100 l
b11111111111111111111111111111110 ~
b11111111111111111111111111111110 3
b11111111111111111111111111111110 =
b11111111111111111111111111111110 H
b11111111111111111111111111111110 c
b11111111111111111111111111111110 }
b11111111111111111111111111111110 ("
b11111111111111111111111111111110 u
b110 w
15
#255000
05
#260000
b10 I
b10 V
b10 b
b10 @
b10 S
b10 )"
b10 \
1?
b10 f
1J
b0 '"
b0 {
b0 z
b0 4
b0 B
1[
b10 s
b100000000000000 L
b100000000000000 U
b100000000000000 r
1Z
0a
b100000000000000 i
1Y
0`
0j
b10 q
b100 g
b1000 m
0k
b100 e
b110 x
b1000000000000000100000000000000 E
b1000000000000000100000000000000 h
b1000000000000000100000000000000 &"
b1000 l
b110 ~
b110 3
b110 =
b110 H
b110 c
b110 }
b110 ("
b110 u
b100000 A
b100000 t
b100000 $"
15
#265000
05
#270000
b0 \
0J
b0 f
b0 I
b0 V
b0 b
b0 @
b0 S
b0 )"
b110 '"
b100110 {
b100110 z
b100110 4
b100110 B
0|
0C
0?
1]
0[
b100110 L
b100110 U
b100110 r
0Z
b100110 i
0Y
b1110 g
b10 m
b0 q
b10 e
b10 x
b0 s
b11100000000000000000000000100110 E
b11100000000000000000000000100110 h
b11100000000000000000000000100110 &"
b100001 A
b100001 t
b100001 $"
b10 l
b10 ~
b10 3
b10 =
b10 H
b10 c
b10 }
b10 ("
b10 u
b0 w
15
#275000
05
#280000
b1 \
b1101111 f
b1111 '"
b1101111 {
b1101111 z
b1101111 4
b1101111 B
0]
b1101111 s
b1101111 L
b1101111 U
b1101111 r
1a
1^
b1101111 i
1_
b110 g
b1110000 m
b1101110 e
b1 x
b1100000000000000000000001101111 E
b1100000000000000000000001101111 h
b1100000000000000000000001101111 &"
b1110000 l
b1 ~
b1 3
b1 =
b1 H
b1 c
b1 }
b1 ("
b1 u
b100110 A
b100110 t
b100110 $"
15
#285000
05
#290000
b1111 f
b1111 {
b1111 z
b1111 4
b1111 B
b1111 s
b1111 L
b1111 U
b1111 r
b1111 i
b1111110 m
b1100000 e
b1111 \
b1101111 x
b1100000000000000000000000001111 E
b1100000000000000000000000001111 h
b1100000000000000000000000001111 &"
b100111 A
b100111 t
b100111 $"
b1111110 l
b1101111 ~
b1101111 3
b1101111 =
b1101111 H
b1101111 c
b1101111 }
b1101111 ("
b1101111 u
15
#295000
05
#300000
b1111111111111111111111111111111 I
b1111111111111111111111111111111 V
b1111111111111111111111111111111 b
b1111111111111111111111111111111 @
b1111111111111111111111111111111 S
b1111111111111111111111111111111 )"
1?
1J
b0 \
b0 f
b1 '"
b1 {
b1 z
b1 4
b1 B
b0 s
b100000000000001 L
b100000000000001 U
b100000000000001 r
xP
0a
0^
b100000000000001 i
1""
1G
1d
0_
b1001 g
b1111 m
b1111 e
b1111 x
b10010000000000000100000000000001 E
b10010000000000000100000000000001 h
b10010000000000000100000000000001 &"
b1111 l
b1111 ~
b1111 3
b1111 =
b1111 H
b1111 c
b1111 }
b1111 ("
b1111 u
b101000 A
b101000 t
b101000 $"
15
#305000
05
#310000
0J
b1000101 m
b111001 e
b110 \
b1000101 l
b110110 f
b110 '"
b110110 {
b110110 z
b110110 4
b110110 B
0|
0C
0?
b110110 s
b110110 L
b110110 U
b110110 r
0P
1a
1^
b0 I
b0 V
b0 b
b110110 i
0""
0G
0d
1_
b0 @
b0 S
b0 )"
b110 g
b1111 "
b1100000000000000000000000110110 E
b1100000000000000000000000110110 h
b1100000000000000000000000110110 &"
b101001 A
b101001 t
b101001 $"
15
#315000
05
#320000
b0 f
b0 '"
b10000 {
b10000 z
b10000 4
b10000 B
b0 s
b100000000010000 L
b100000000010000 U
b100000000010000 r
xP
0a
0^
b100000000010000 i
1""
1G
1d
0_
b1001 g
b110110 m
b110110 e
b0 \
b110110 x
b10010000000000000100000000010000 E
b10010000000000000100000000010000 h
b10010000000000000100000000010000 &"
b110110 l
b110110 ~
b110110 3
b110110 =
b110110 H
b110110 c
b110110 }
b110110 ("
b110110 u
b101010 A
b101010 t
b101010 $"
15
#325000
05
#330000
xj
bx m
xk
bx e
b0xx0xx0 \
bx l
bx f
bx s
bx I
bx V
bx b
1|
1C
1J
0P
1a
b110 '"
b110110 {
b110110 z
b110110 4
b110110 B
b0 i
0""
0G
0d
1`
b110110 L
b110110 U
b110110 r
b1010 g
b10100000000000000000000000000000 E
b10100000000000000000000000000000 h
b10100000000000000000000000000000 &"
b101011 A
b101011 t
b101011 $"
b110110 v
15
#335000
05
#340000
b1010 f
b1010 s
b1010 I
b1010 V
b1010 b
b0x0x0 \
bx x
b1010 D
b1010 T
b1010 !"
b1010 %"
bx ~
bx 3
bx =
bx H
bx c
bx }
bx ("
bx u
b101100 A
b101100 t
b101100 $"
15
#345000
05
#350000
1y
b0 f
1M
b0 I
b0 V
b0 b
xP
0a
b0 '"
b1000000000000 {
b1000000000000 z
b1000000000000 4
b1000000000000 B
0|
0C
b0 s
b101000000000000 i
1""
1G
1d
0`
b101000000000000 L
b101000000000000 U
b101000000000000 r
0j
b1001 g
b1010 m
0k
b1010 e
b0 \
b1010 x
b10010000000000000101000000000000 E
b10010000000000000101000000000000 h
b10010000000000000101000000000000 &"
b101101 A
b101101 t
b101101 $"
b1010 l
b1010 ~
b1010 3
b1010 =
b1010 H
b1010 c
b1010 }
b1010 ("
b1010 u
15
#355000
05
#360000
b1000000 m
b111100 e
b10 \
0J
b1000000 l
b110110 f
b10000 {
b10000 z
b10000 4
b10000 B
01
0M
b110110 s
b100000000010000 L
b100000000010000 U
b100000000010000 r
0P
0y
1a
b100000000010000 i
0""
0G
0d
1`
b1000 g
b10000000000000000100000000010000 E
b10000000000000000100000000010000 h
b10000000000000000100000000010000 &"
b101110 A
b101110 t
b101110 $"
15
#365000
05
#370000
b1 f
b1 '"
b1 {
b1 z
b1 4
b1 B
b110111 q
1[
b1 s
b1 L
b1 U
b1 r
1W
1^
0a
b1 i
1X
0`
b0 g
b110111 m
b110111 e
b0 \
b110110 x
b1 E
b1 h
b1 &"
b101111 A
b101111 t
b101111 $"
b110111 l
b110110 ~
b110110 3
b110110 =
b110110 H
b110110 c
b110110 }
b110110 ("
b110110 u
15
#375000
05
#380000
b0 f
b0 '"
b10000 {
b10000 z
b10000 4
b10000 B
0[
b0 s
b100000000010000 L
b100000000010000 U
b100000000010000 r
0Z
0W
0^
xP
b100000000010000 i
0X
1""
1G
1d
b1001 g
b110111 m
b0 q
b110111 e
b0 \
b110111 x
b10010000000000000100000000010000 E
b10010000000000000100000000010000 h
b10010000000000000100000000010000 &"
b110111 l
b110111 ~
b110111 3
b110111 =
b110111 H
b110111 c
b110111 }
b110111 ("
b110111 u
b110000 A
b110000 t
b110000 $"
15
#385000
05
#390000
b1000110 m
b111000 e
b111 \
b1000110 l
b1111 f
b1111 s
b1111 I
b1111 V
b1111 b
b1111 @
b1111 S
b1111 )"
1?
1J
b1 '"
b1 {
b1 z
b1 4
b1 B
b100000000000001 L
b100000000000001 U
b100000000000001 r
0P
1a
b100000000000001 i
0""
0G
0d
1`
b1000 g
b10000000000000000100000000000001 E
b10000000000000000100000000000001 h
b10000000000000000100000000000001 &"
b110001 A
b110001 t
b110001 $"
b110111 v
15
#395000
05
#400000
0J
b0 I
b0 V
b0 b
b0 @
b0 S
b0 )"
b0 f
b1010 '"
b101010 {
b101010 z
b101010 4
b101010 B
0|
0C
0?
1]
b0 s
b101010 L
b101010 U
b101010 r
0a
b101010 i
0`
b1110 g
b1111 m
b1111 e
b0 \
b1111 x
b11100000000000000000000000101010 E
b11100000000000000000000000101010 h
b11100000000000000000000000101010 &"
b1111 l
b1111 ~
b1111 3
b1111 =
b1111 H
b1111 c
b1111 }
b1111 ("
b1111 u
b110010 A
b110010 t
b110010 $"
15
#405000
05
#410000
b1111 I
b1111 V
b1111 b
b1111 @
b1111 S
b1111 )"
1?
1J
b1 '"
b1 {
b1 z
b1 4
b1 B
0]
b100000000000001 L
b100000000000001 U
b100000000000001 r
xP
b100000000000001 i
1""
1G
1d
b1001 g
b1110 m
b1110 e
b1110 x
b10010000000000000100000000000001 E
b10010000000000000100000000000001 h
b10010000000000000100000000000001 &"
b101010 A
b101010 t
b101010 $"
b1110 l
b1110 ~
b1110 3
b1110 =
b1110 H
b1110 c
b1110 }
b1110 ("
b1110 u
15
#415000
05
#420000
b11000 m
b100 e
b1010 \
b11000 l
b1010 f
b1010 s
0P
1a
b111 '"
b110111 {
b110111 z
b110111 4
b110111 B
1|
1C
0?
b0 i
0""
0G
0d
1`
b110111 L
b110111 U
b110111 r
b1010 I
b1010 V
b1010 b
b1010 g
b0 @
b0 S
b0 )"
b10100000000000000000000000000000 E
b10100000000000000000000000000000 h
b10100000000000000000000000000000 &"
b1110 "
b101011 A
b101011 t
b101011 $"
15
#425000
05
#430000
b1000 \
b1001000 f
b1001000 s
b1001000 I
b1001000 V
b1001000 b
b1010010 m
b1000010 e
b1010 x
b1001000 D
b1001000 T
b1001000 !"
b1001000 %"
b101100 A
b101100 t
b101100 $"
b1010010 l
b1010 ~
b1010 3
b1010 =
b1010 H
b1010 c
b1010 }
b1010 ("
b1010 u
15
#435000
05
#440000
1y
b0 f
1M
b0 I
b0 V
b0 b
xP
0a
b0 '"
b1000000000000 {
b1000000000000 z
b1000000000000 4
b1000000000000 B
0|
0C
b0 s
b101000000000000 i
1""
1G
1d
0`
b101000000000000 L
b101000000000000 U
b101000000000000 r
b1001 g
b1001000 m
b1001000 e
b0 \
b1001000 x
b10010000000000000101000000000000 E
b10010000000000000101000000000000 h
b10010000000000000101000000000000 &"
b1001000 l
b1001000 ~
b1001000 3
b1001000 =
b1001000 H
b1001000 c
b1001000 }
b1001000 ("
b1001000 u
b101101 A
b101101 t
b101101 $"
15
#445000
05
#450000
b1111111 m
b1111111 e
0J
b1111111 l
b110111 f
b10000 {
b10000 z
b10000 4
b10000 B
01
0M
b110111 s
b100000000010000 L
b100000000010000 U
b100000000010000 r
0P
0y
1a
b100000000010000 i
0""
0G
0d
1`
b1000 g
b10000000000000000100000000010000 E
b10000000000000000100000000010000 h
b10000000000000000100000000010000 &"
b101110 A
b101110 t
b101110 $"
15
#455000
05
