Lab1/pico/simulation/icarus/xtop.vcd
$date
	Wed Sep 25 17:51:03 2019
$end
$version
	Icarus Verilog
$end
$timescale
	1ps
$end
$scope module xtop_tb $end
$var wire 32 ! r0 [31:0] $end
$var wire 32 " r1 [31:0] $end
$var wire 32 # r10 [31:0] $end
$var wire 32 $ r11 [31:0] $end
$var wire 32 % r12 [31:0] $end
$var wire 32 & r13 [31:0] $end
$var wire 32 ' r14 [31:0] $end
$var wire 32 ( r15 [31:0] $end
$var wire 32 ) r2 [31:0] $end
$var wire 32 * r3 [31:0] $end
$var wire 32 + r4 [31:0] $end
$var wire 32 , r5 [31:0] $end
$var wire 32 - r6 [31:0] $end
$var wire 32 . r7 [31:0] $end
$var wire 32 / r8 [31:0] $end
$var wire 32 0 r9 [31:0] $end
$var wire 1 1 trap $end
$var wire 1 2 par_we $end
$var wire 32 3 par_out [31:0] $end
$var wire 14 4 par_addr [13:0] $end
$var reg 1 5 clk $end
$var reg 32 6 par_in [31:0] $end
$var reg 1 7 rst $end
$var integer 32 8 k [31:0] $end
$var integer 32 9 start_time [31:0] $end
$scope module uut $end
$var wire 1 5 clk $end
$var wire 32 : ext_data_to_rd [31:0] $end
$var wire 32 ; par_in [31:0] $end
$var wire 32 < par_out [31:0] $end
$var wire 1 = par_re $end
$var wire 1 2 par_we $end
$var wire 1 7 rst $end
$var wire 1 1 trap $end
$var wire 1 > regf_sel $end
$var wire 32 ? regf_data_to_rd [31:0] $end
$var wire 14 @ pc [13:0] $end
$var wire 14 A par_addr [13:0] $end
$var wire 1 B mem_sel $end
$var wire 32 C mem_data_to_rd [31:0] $end
$var wire 32 D instruction [31:0] $end
$var wire 1 E ext_sel $end
$var wire 1 F data_we $end
$var wire 32 G data_to_wr [31:0] $end
$var wire 32 H data_to_rd [31:0] $end
$var wire 1 I data_sel $end
$var wire 32 J data_out_LED [31:0] $end
$var wire 15 K data_addr [14:0] $end
$var wire 1 L cprt_sel $end
$var wire 1 M LED_sel $end
$scope module LED $end
$var wire 1 5 clk $end
$var wire 8 N data_in [7:0] $end
$var wire 1 O sel $end
$var reg 8 P LEDpin [7:0] $end
$upscope $end
$scope module addr_decoder $end
$var wire 32 Q ext_data_to_rd [31:0] $end
$var wire 1 I sel $end
$var wire 32 R regf_data_to_rd [31:0] $end
$var wire 32 S mem_data_to_rd [31:0] $end
$var wire 15 T addr [14:0] $end
$var reg 1 M LED_sel $end
$var reg 1 L cprt_sel $end
$var reg 32 U data_to_rd [31:0] $end
$var reg 1 E ext_sel $end
$var reg 1 B mem_sel $end
$var reg 1 > regf_sel $end
$var reg 1 1 trap_sel $end
$upscope $end
$scope module controller $end
$var wire 1 V alu_arith_ops $end
$var wire 1 W alu_imm_ops $end
$var wire 1 X alu_logic_ops $end
$var wire 1 Y alu_mem_ops $end
$var wire 1 Z alu_ops $end
$var wire 32 [ and_res [31:0] $end
$var wire 1 \ branch_ops $end
$var wire 1 5 clk $end
$var wire 1 ] imm_ops $end
$var wire 1 ^ load_imm_ops $end
$var wire 1 _ load_mem_ops $end
$var wire 1 ` load_ops $end
$var wire 32 a mem_data_from [31:0] $end
$var wire 32 b mem_data_to [31:0] $end
$var wire 1 I mem_sel $end
$var wire 1 F mem_we $end
$var wire 1 7 rst $end
$var wire 1 c store_mem_ops $end
$var wire 32 d xor_res [31:0] $end
$var wire 32 e operand [31:0] $end
$var wire 4 f opcode [3:0] $end
$var wire 32 g instruction [31:0] $end
$var wire 32 h imm [31:0] $end
$var wire 1 i carry_n_1 $end
$var wire 1 j carry_n $end
$var wire 33 k adder_res_2 [32:0] $end
$var wire 32 l adder_res_1 [31:0] $end
$var reg 1 m alu_carry $end
$var reg 1 n alu_negative $end
$var reg 1 o alu_overflow $end
$var reg 33 p alu_result [32:0] $end
$var reg 15 q mem_addr [14:0] $end
$var reg 32 r operand_int [31:0] $end
$var reg 14 s pc [13:0] $end
$var reg 32 t regA [31:0] $end
$var reg 32 u regB [31:0] $end
$var reg 32 v regC [31:0] $end
$upscope $end
$scope module cprint $end
$var wire 1 5 clk $end
$var wire 8 w data_in [7:0] $end
$var wire 1 x sel $end
$upscope $end
$scope module ram $end
$var wire 1 5 clk $end
$var wire 14 y data_addr [13:0] $end
$var wire 14 z data_addr_int [13:0] $end
$var wire 1 { data_en_int $end
$var wire 32 | data_in [31:0] $end
$var wire 32 } data_in_int [31:0] $end
$var wire 32 ~ data_out [31:0] $end
$var wire 1 B data_sel $end
$var wire 1 F data_we $end
$var wire 1 !" data_we_int $end
$var wire 1 "" instr_en $end
$var wire 14 #" pc [13:0] $end
$var reg 32 $" data_out_int [31:0] $end
$var reg 32 %" instruction [31:0] $end
$upscope $end
$scope module regf $end
$var wire 4 &" addr [3:0] $end
$var wire 1 5 clk $end
$var wire 32 '" data_in [31:0] $end
$var wire 1 > sel $end
$var wire 1 F we $end
$var wire 32 (" data_out [31:0] $end
$upscope $end
$upscope $end
$upscope $end
$enddefinitions $end
#0
$dumpvars
bx ("
bx '"
bx &"
bx %"
bx $"
bx #"
1""
x!"
bx ~
bx }
bx |
x{
bx z
bx y
xx
bx w
bx v
bx u
bx t
bx s
b0 r
bx q
b0 p
0o
0n
0m
bx l
bx k
xj
xi
bx h
bx g
bx f
b0 e
bx d
xc
bx b
b0 a
x`
x_
x^
x]
x\
b0 [
xZ
xY
xX
xW
xV
b0 U
bx T
bx S
bx R
b0 Q
bx P
xO
bx N
xM
xL
bx K
b0xxxxxxxx J
xI
b0 H
bx G
xF
xE
bx D
bx C
xB
bx A
bx @
bx ?
x>
x=
bx <
b0 ;
b0 :
bx 9
bx 8
07
b0 6
15
bx 4
bx 3
x2
x1
bx 0
bx /
bx .
bx -
bx ,
bx +
bx *
bx )
bx (
bx '
bx &
bx %
bx $
bx #
bx "
bx !
$end
#5000
05
#10000
15
#11000
0i
b0 l
0j
b0 d
b0 N
b0 w
b0 @
b0 s
b0 #"
b0 k
b0 }
b0 3
b0 <
b0 G
b0 b
b0 |
b0 '"
b0 t
b0 u
b0 v
17
#15000
05
#20000
b1 l
b1 d
0I
0=
b0 ?
b0 R
b0 ("
b1 k
b1 e
b1 &"
b1 z
b1 y
b1 4
b1 A
01
0E
0M
0L
0>
0{
0B
b1 r
b1 K
b1 T
b1 q
0Y
0Z
0O
0x
02
1`
1]
b1 h
0\
0X
0V
0W
0!"
0F
0c
0_
1^
b110 f
b1100000000000000000000000000001 D
b1100000000000000000000000000001 g
b1100000000000000000000000000001 %"
15
#21000
b10000 8
b10101 9
07
#25000
05
#30000
b10 l
b0 d
b1 [
b1 N
b1 w
b1 @
b1 s
b1 #"
b10 k
b1 }
b1 3
b1 <
b1 G
b1 b
b1 |
b1 '"
b1 t
15
#35000
05
#40000
bx H
bx U
bx a
bx ?
bx R
bx ("
1>
1I
b1 l
b1 d
b0 [
b1 k
b0 e
b0 &"
b0 z
b0 y
b0 4
b0 A
b0 r
b100000000000000 K
b100000000000000 T
b100000000000000 q
0`
0]
b100000000000000 h
1!"
1F
1c
0^
b1001 f
b10010000000000000100000000000000 D
b10010000000000000100000000000000 g
b10010000000000000100000000000000 %"
b10 @
b10 s
b10 #"
15
#45000
05
#50000
1i
0I
b10000000000000000000000000000000 l
1j
b11111111111111111111111111111110 d
b1 [
b100000000000000000000000000000000 k
b11111111111111111111111111111111 e
b1111 &"
b11111111111111 z
b11111111111111 y
b11111111111111 4
b11111111111111 A
01
0>
b11111111111111111111111111111111 r
b111111111111111 K
b111111111111111 T
b111111111111111 q
1`
1]
b0 H
b0 U
b0 a
b11111111111111111111111111111111 h
0!"
0F
0c
1^
b0 ?
b0 R
b0 ("
b110 f
b1 !
b1101111111111111111111111111111 D
b1101111111111111111111111111111 g
b1101111111111111111111111111111 %"
b11 @
b11 s
b11 #"
15
#55000
05
#60000
1i
0o
1j
b11111111111111111111111111111111 e
1n
1m
b111111111111111111111111111111110 p
1Z
b11111111111111111111111111111111 r
1V
0`
1W
0^
b0 f
b11111111111111111111111111111110 l
b0 d
b11111111111111111111111111111111 [
b11111111 N
b11111111 w
b1111111111111111111111111111 D
b1111111111111111111111111111 g
b1111111111111111111111111111 %"
b111111111111111111111111111111110 k
b11111111111111111111111111111111 }
b11111111111111111111111111111111 3
b11111111111111111111111111111111 <
b11111111111111111111111111111111 G
b11111111111111111111111111111111 b
b11111111111111111111111111111111 |
b11111111111111111111111111111111 '"
b11111111111111111111111111111111 t
b100 @
b100 s
b100 #"
15
#65000
05
#70000
b101 e
b1 &"
b10001 z
b10001 y
b10001 4
b10001 A
0Z
b100000000010001 K
b100000000010001 T
b100000000010001 q
0Y
0V
0]
1`
b100000000010001 h
0W
1_
b1000 f
b10000000000000000000000000000011 l
0n
0m
b0 p
b11111111111111111111111111111011 d
b100 [
b11111110 N
b11111110 w
b101 r
b10000000000000000100000000010001 D
b10000000000000000100000000010001 g
b10000000000000000100000000010001 %"
b101 @
b101 s
b101 #"
b100000000000000000000000000000011 k
b11111111111111111111111111111110 }
b11111111111111111111111111111110 3
b11111111111111111111111111111110 <
b11111111111111111111111111111110 G
b11111111111111111111111111111110 b
b11111111111111111111111111111110 |
b11111111111111111111111111111110 '"
b11111111111111111111111111111110 t
b101 v
15
#75000
05
#80000
b1 H
b1 U
b1 a
b1 ?
b1 R
b1 ("
1>
b1 e
1I
b0 &"
b0 z
b0 y
b0 4
b0 A
1Z
b1 r
b100000000000000 K
b100000000000000 T
b100000000000000 q
1Y
0`
b100000000000000 h
1X
0_
0i
b1 p
b100 f
b110 l
0j
b100 d
b1 [
b101 N
b101 w
b1000000000000000100000000000000 D
b1000000000000000100000000000000 g
b1000000000000000100000000000000 %"
b110 k
b101 }
b101 3
b101 <
b101 G
b101 b
b101 |
b101 '"
b101 t
b110 @
b110 s
b110 #"
15
#85000
05
#90000
b0 [
0I
b0 e
b0 H
b0 U
b0 a
b0 ?
b0 R
b0 ("
b1100 &"
b1100 z
b1100 y
b1100 4
b1100 A
0{
0B
0>
1\
0Z
b1100 K
b1100 T
b1100 q
0Y
b1100 h
0X
b1110 f
b1 l
b0 p
b1 d
b1 N
b1 w
b0 r
b11100000000000000000000000001100 D
b11100000000000000000000000001100 g
b11100000000000000000000000001100 %"
b111 @
b111 s
b111 #"
b1 k
b1 }
b1 3
b1 <
b1 G
b1 b
b1 |
b1 '"
b1 t
b0 v
15
#95000
05
#100000
b1100011 e
b11 &"
b1100011 z
b1100011 y
b1100011 4
b1100011 A
0\
b1100011 r
b1100011 K
b1100011 T
b1100011 q
1`
1]
b1100011 h
1^
b110 f
b1100011 l
b1100011 d
b0 N
b0 w
b1100000000000000000000001100011 D
b1100000000000000000000001100011 g
b1100000000000000000000001100011 %"
b1100011 k
b0 }
b0 3
b0 <
b0 G
b0 b
b0 |
b0 '"
b0 t
b1100 @
b1100 s
b1100 #"
15
#105000
05
#110000
b100 e
b100 &"
b100 z
b100 y
b100 4
b100 A
b100 r
b100 K
b100 T
b100 q
b100 h
b1100111 l
b1100111 d
b0 [
b1100011 N
b1100011 w
b1100000000000000000000000000100 D
b1100000000000000000000000000100 g
b1100000000000000000000000000100 %"
b1101 @
b1101 s
b1101 #"
b1100111 k
b1100011 }
b1100011 3
b1100011 <
b1100011 G
b1100011 b
b1100011 |
b1100011 '"
b1100011 t
15
#115000
05
#120000
b1 H
b1 U
b1 a
b1 ?
b1 R
b1 ("
1>
1I
b0 e
b0 &"
b0 z
b0 y
b0 4
b0 A
b0 r
b100000000000000 K
b100000000000000 T
b100000000000000 q
0`
0]
b100000000000000 h
1!"
1F
1c
0^
b1001 f
b100 l
b100 d
b0 [
b100 N
b100 w
b10010000000000000100000000000000 D
b10010000000000000100000000000000 g
b10010000000000000100000000000000 %"
b100 k
b100 }
b100 3
b100 <
b100 G
b100 b
b100 |
b100 '"
b100 t
b1110 @
b1110 s
b1110 #"
15
#125000
05
#130000
1i
0I
b10000000000000000000000000000011 l
1j
b11111111111111111111111111111011 d
b100 [
b100000000000000000000000000000011 k
b11111111111111111111111111111111 e
b1111 &"
b11111111111111 z
b11111111111111 y
b11111111111111 4
b11111111111111 A
01
0>
b11111111111111111111111111111111 r
b111111111111111 K
b111111111111111 T
b111111111111111 q
1`
1]
b0 H
b0 U
b0 a
b11111111111111111111111111111111 h
0!"
0F
0c
1^
b0 ?
b0 R
b0 ("
b110 f
b100 !
b1101111111111111111111111111111 D
b1101111111111111111111111111111 g
b1101111111111111111111111111111 %"
b1111 @
b1111 s
b1111 #"
15
#135000
05
#140000
1i
0o
1j
b11111111111111111111111111111111 e
1n
1m
b111111111111111111111111111111110 p
1Z
b11111111111111111111111111111111 r
1V
0`
1W
0^
b0 f
b11111111111111111111111111111110 l
b0 d
b11111111111111111111111111111111 [
b11111111 N
b11111111 w
b1111111111111111111111111111 D
b1111111111111111111111111111 g
b1111111111111111111111111111 %"
b111111111111111111111111111111110 k
b11111111111111111111111111111111 }
b11111111111111111111111111111111 3
b11111111111111111111111111111111 <
b11111111111111111111111111111111 G
b11111111111111111111111111111111 b
b11111111111111111111111111111111 |
b11111111111111111111111111111111 '"
b11111111111111111111111111111111 t
b10000 @
b10000 s
b10000 #"
15
#145000
05
#150000
b101 e
b1 &"
b10001 z
b10001 y
b10001 4
b10001 A
0Z
b100000000010001 K
b100000000010001 T
b100000000010001 q
0Y
0V
0]
1`
b100000000010001 h
0W
1_
b1000 f
b10000000000000000000000000000011 l
0n
0m
b0 p
b11111111111111111111111111111011 d
b100 [
b11111110 N
b11111110 w
b101 r
b10000000000000000100000000010001 D
b10000000000000000100000000010001 g
b10000000000000000100000000010001 %"
b10001 @
b10001 s
b10001 #"
b100000000000000000000000000000011 k
b11111111111111111111111111111110 }
b11111111111111111111111111111110 3
b11111111111111111111111111111110 <
b11111111111111111111111111111110 G
b11111111111111111111111111111110 b
b11111111111111111111111111111110 |
b11111111111111111111111111111110 '"
b11111111111111111111111111111110 t
b101 v
15
#155000
05
#160000
b100 H
b100 U
b100 a
b100 ?
b100 R
b100 ("
1>
b100 e
1I
b0 &"
b0 z
b0 y
b0 4
b0 A
1Z
b100 r
b100000000000000 K
b100000000000000 T
b100000000000000 q
1Y
0`
b100000000000000 h
1X
0_
0i
b100 p
b100 f
b1001 l
0j
b1 d
b100 [
b101 N
b101 w
b1000000000000000100000000000000 D
b1000000000000000100000000000000 g
b1000000000000000100000000000000 %"
b1001 k
b101 }
b101 3
b101 <
b101 G
b101 b
b101 |
b101 '"
b101 t
b10010 @
b10010 s
b10010 #"
15
#165000
05
#170000
b0 [
0I
b0 e
b0 H
b0 U
b0 a
b0 ?
b0 R
b0 ("
b1000 &"
b11000 z
b11000 y
b11000 4
b11000 A
0{
0B
0>
1\
0Z
b11000 K
b11000 T
b11000 q
0Y
b11000 h
0X
b1110 f
b100 l
b0 p
b100 d
b100 N
b100 w
b0 r
b11100000000000000000000000011000 D
b11100000000000000000000000011000 g
b11100000000000000000000000011000 %"
b10011 @
b10011 s
b10011 #"
b100 k
b100 }
b100 3
b100 <
b100 G
b100 b
b100 |
b100 '"
b100 t
b0 v
15
#175000
05
#180000
b10 [
b1101110 e
b1110 &"
b1101110 z
b1101110 y
b1101110 4
b1101110 A
0\
b1101110 r
b1101110 K
b1101110 T
b1101110 q
1`
1]
b1101110 h
1^
b110 f
b1110001 l
b1101101 d
b11 N
b11 w
b1100000000000000000000001101110 D
b1100000000000000000000001101110 g
b1100000000000000000000001101110 %"
b1110001 k
b11 }
b11 3
b11 <
b11 G
b11 b
b11 |
b11 '"
b11 t
b11000 @
b11000 s
b11000 #"
15
#185000
05
#190000
b10 e
b10 &"
b10 z
b10 y
b10 4
b10 A
b10 r
b10 K
b10 T
b10 q
b10 h
b1110000 l
b1101100 d
b10 [
b1101110 N
b1101110 w
b1100000000000000000000000000010 D
b1100000000000000000000000000010 g
b1100000000000000000000000000010 %"
b11001 @
b11001 s
b11001 #"
b1110000 k
b1101110 }
b1101110 3
b1101110 <
b1101110 G
b1101110 b
b1101110 |
b1101110 '"
b1101110 t
15
#195000
05
#200000
b100 H
b100 U
b100 a
b100 ?
b100 R
b100 ("
1>
1I
b0 [
b0 e
b0 &"
b0 z
b0 y
b0 4
b0 A
b0 r
b100000000000000 K
b100000000000000 T
b100000000000000 q
0`
0]
b100000000000000 h
1!"
1F
1c
0^
b1001 f
b10 l
b10 d
b10 N
b10 w
b10010000000000000100000000000000 D
b10010000000000000100000000000000 g
b10010000000000000100000000000000 %"
b10 k
b10 }
b10 3
b10 <
b10 G
b10 b
b10 |
b10 '"
b10 t
b11010 @
b11010 s
b11010 #"
15
#205000
05
#210000
0I
b10000000000000001 l
b1111111111111101 d
b10 [
b10000000000000001 k
b1111111111111111 e
b1111 &"
b11111111111111 z
b11111111111111 y
b11111111111111 4
b11111111111111 A
01
0>
b1111111111111111 r
b111111111111111 K
b111111111111111 T
b111111111111111 q
1`
1]
b0 H
b0 U
b0 a
b1111111111111111 h
0!"
0F
0c
1^
b0 ?
b0 R
b0 ("
b110 f
b10 !
b1100000000000001111111111111111 D
b1100000000000001111111111111111 g
b1100000000000001111111111111111 %"
b11011 @
b11011 s
b11011 #"
15
#215000
05
#220000
1i
b1111111111111111111111111111111 e
b1111111111111111111111111111111 r
b1111111111111111111111111111111 h
b111 f
b10000000000000001111111111111110 l
b1111111111111110000000000000000 d
b1111111111111111 [
b11111111 N
b11111111 w
b1110000000000000111111111111111 D
b1110000000000000111111111111111 g
b1110000000000000111111111111111 %"
b10000000000000001111111111111110 k
b1111111111111111 }
b1111111111111111 3
b1111111111111111 <
b1111111111111111 G
b1111111111111111 b
b1111111111111111 |
b1111111111111111 '"
b1111111111111111 t
b11100 @
b11100 s
b11100 #"
15
#225000
05
#230000
bx H
bx U
bx a
bx ?
bx R
bx ("
1>
0i
1I
b0 e
b1 &"
b1 z
b1 y
b1 4
b1 A
b0 r
b100000000000001 K
b100000000000001 T
b100000000000001 q
0`
0]
b100000000000001 h
1!"
1F
1c
0^
b1001 f
b1111111111111111111111111111111 l
b1111111111111111111111111111111 d
b0 [
b10010000000000000100000000000001 D
b10010000000000000100000000000001 g
b10010000000000000100000000000001 %"
b11101 @
b11101 s
b11101 #"
b1111111111111111111111111111111 k
b1111111111111111111111111111111 }
b1111111111111111111111111111111 3
b1111111111111111111111111111111 <
b1111111111111111111111111111111 G
b1111111111111111111111111111111 b
b1111111111111111111111111111111 |
b1111111111111111111111111111111 '"
b1111111111111111111111111111111 t
15
#235000
05
#240000
1o
1i
b11111111111111111111111111111110 l
b0 d
b1111111111111111111111111111111 [
1n
1>
b11111111111111111111111111111110 k
b1111111111111111111111111111111 e
1I
1Y
b1111111111111111111111111111111 r
1Z
b11111111111111111111111111111110 p
1V
0!"
0F
0c
b1111111111111111111111111111111 H
b1111111111111111111111111111111 U
b1111111111111111111111111111111 a
b1 f
b1111111111111111111111111111111 ?
b1111111111111111111111111111111 R
b1111111111111111111111111111111 ("
b10000000000000100000000000001 D
b10000000000000100000000000001 g
b10000000000000100000000000001 %"
b1111111111111111111111111111111 "
b11110 @
b11110 s
b11110 #"
15
#245000
05
#250000
b0 H
b0 U
b0 a
b0 ?
b0 R
b0 ("
0Y
b110 e
0I
b10001 z
b10001 y
b10001 4
b10001 A
01
0>
0Z
b100000000010001 K
b100000000010001 T
b100000000010001 q
0V
1`
b100000000010001 h
1_
0m
b1000 f
b10000000000000000000000000000100 l
1j
0o
0n
b0 p
b11111111111111111111111111111000 d
b110 [
b11111110 N
b11111110 w
b110 r
b10000000000000000100000000010001 D
b10000000000000000100000000010001 g
b10000000000000000100000000010001 %"
b11111 @
b11111 s
b11111 #"
b100000000000000000000000000000100 k
b11111111111111111111111111111110 }
b11111111111111111111111111111110 3
b11111111111111111111111111111110 <
b11111111111111111111111111111110 G
b11111111111111111111111111111110 b
b11111111111111111111111111111110 |
b11111111111111111111111111111110 '"
b11111111111111111111111111111110 t
b110 v
15
#255000
05
#260000
b10 H
b10 U
b10 a
b10 ?
b10 R
b10 ("
b10 [
1>
b10 e
1I
b0 &"
b0 z
b0 y
b0 4
b0 A
1Z
b10 r
b100000000000000 K
b100000000000000 T
b100000000000000 q
1Y
0`
b100000000000000 h
1X
0_
0i
b10 p
b100 f
b1000 l
0j
b100 d
b110 N
b110 w
b1000000000000000100000000000000 D
b1000000000000000100000000000000 g
b1000000000000000100000000000000 %"
b1000 k
b110 }
b110 3
b110 <
b110 G
b110 b
b110 |
b110 '"
b110 t
b100000 @
b100000 s
b100000 #"
15
#265000
05
#270000
b0 [
0I
b0 e
b0 H
b0 U
b0 a
b0 ?
b0 R
b0 ("
b110 &"
b100110 z
b100110 y
b100110 4
b100110 A
0{
0B
0>
1\
0Z
b100110 K
b100110 T
b100110 q
0Y
b100110 h
0X
b1110 f
b10 l
b0 p
b10 d
b10 N
b10 w
b0 r
b11100000000000000000000000100110 D
b11100000000000000000000000100110 g
b11100000000000000000000000100110 %"
b100001 @
b100001 s
b100001 #"
b10 k
b10 }
b10 3
b10 <
b10 G
b10 b
b10 |
b10 '"
b10 t
b0 v
15
#275000
05
#280000
b1 [
b1101111 e
b1111 &"
b1101111 z
b1101111 y
b1101111 4
b1101111 A
0\
b1101111 r
b1101111 K
b1101111 T
b1101111 q
1`
1]
b1101111 h
1^
b110 f
b1110000 l
b1101110 d
b1 N
b1 w
b1100000000000000000000001101111 D
b1100000000000000000000001101111 g
b1100000000000000000000001101111 %"
b1110000 k
b1 }
b1 3
b1 <
b1 G
b1 b
b1 |
b1 '"
b1 t
b100110 @
b100110 s
b100110 #"
15
#285000
05
#290000
b1111 e
b1111 z
b1111 y
b1111 4
b1111 A
b1111 r
b1111 K
b1111 T
b1111 q
b1111 h
b1111110 l
b1100000 d
b1111 [
b1101111 N
b1101111 w
b1100000000000000000000000001111 D
b1100000000000000000000000001111 g
b1100000000000000000000000001111 %"
b100111 @
b100111 s
b100111 #"
b1111110 k
b1101111 }
b1101111 3
b1101111 <
b1101111 G
b1101111 b
b1101111 |
b1101111 '"
b1101111 t
15
#295000
05
#300000
b1111111111111111111111111111111 H
b1111111111111111111111111111111 U
b1111111111111111111111111111111 a
b1111111111111111111111111111111 ?
b1111111111111111111111111111111 R
b1111111111111111111111111111111 ("
1>
1I
b0 [
b0 e
b1 &"
b1 z
b1 y
b1 4
b1 A
b0 r
b100000000000001 K
b100000000000001 T
b100000000000001 q
0`
0]
b100000000000001 h
1!"
1F
1c
0^
b1001 f
b1111 l
b1111 d
b1111 N
b1111 w
b10010000000000000100000000000001 D
b10010000000000000100000000000001 g
b10010000000000000100000000000001 %"
b1111 k
b1111 }
b1111 3
b1111 <
b1111 G
b1111 b
b1111 |
b1111 '"
b1111 t
b101000 @
b101000 s
b101000 #"
15
#305000
05
#310000
0I
b1000101 l
b111001 d
b110 [
b1000101 k
b110110 e
b110 &"
b110110 z
b110110 y
b110110 4
b110110 A
0{
0B
0>
b110110 r
b110110 K
b110110 T
b110110 q
1`
1]
b0 H
b0 U
b0 a
b110110 h
0!"
0F
0c
1^
b0 ?
b0 R
b0 ("
b110 f
b1111 "
b1100000000000000000000000110110 D
b1100000000000000000000000110110 g
b1100000000000000000000000110110 %"
b101001 @
b101001 s
b101001 #"
15
#315000
05
#320000
b0 e
b0 &"
b10000 z
b10000 y
b10000 4
b10000 A
b0 r
b100000000010000 K
b100000000010000 T
b100000000010000 q
0`
0]
b100000000010000 h
1!"
1F
1c
0^
b1001 f
b110110 l
b110110 d
b0 [
b110110 N
b110110 w
b10010000000000000100000000010000 D
b10010000000000000100000000010000 g
b10010000000000000100000000010000 %"
b110110 k
b110110 }
b110110 3
b110110 <
b110110 G
b110110 b
b110110 |
b110110 '"
b110110 t
b101010 @
b101010 s
b101010 #"
15
#325000
05
#330000
xi
bx l
xj
bx d
b0xx0xx0 [
bx k
bx e
bx r
bx H
bx U
bx a
1{
1B
1I
1`
b110 &"
b110110 z
b110110 y
b110110 4
b110110 A
b0 h
0!"
0F
0c
1_
b110110 K
b110110 T
b110110 q
b1010 f
b10100000000000000000000000000000 D
b10100000000000000000000000000000 g
b10100000000000000000000000000000 %"
b101011 @
b101011 s
b101011 #"
b110110 u
15
#335000
05
#340000
b1010 e
b1010 r
b1010 H
b1010 U
b1010 a
b0x0x0 [
bx N
bx w
b1010 C
b1010 S
b1010 ~
b1010 $"
bx }
bx 3
bx <
bx G
bx b
bx |
bx '"
bx t
b101100 @
b101100 s
b101100 #"
15
#345000
05
#350000
1x
b0 e
1L
b0 H
b0 U
b0 a
0`
b0 &"
b1000000000000 z
b1000000000000 y
b1000000000000 4
b1000000000000 A
0{
0B
b0 r
b101000000000000 h
1!"
1F
1c
0_
b101000000000000 K
b101000000000000 T
b101000000000000 q
0i
b1001 f
b1010 l
0j
b1010 d
b0 [
b1010 N
b1010 w
b10010000000000000101000000000000 D
b10010000000000000101000000000000 g
b10010000000000000101000000000000 %"
b101101 @
b101101 s
b101101 #"
b1010 k
b1010 }
b1010 3
b1010 <
b1010 G
b1010 b
b1010 |
b1010 '"
b1010 t
15
#355000
05
#360000
b1000000 l
b111100 d
b10 [
0I
b1000000 k
b110110 e
b10000 z
b10000 y
b10000 4
b10000 A
01
0L
b110110 r
b100000000010000 K
b100000000010000 T
b100000000010000 q
0x
1`
b100000000010000 h
0!"
0F
0c
1_
b1000 f
b10000000000000000100000000010000 D
b10000000000000000100000000010000 g
b10000000000000000100000000010000 %"
b101110 @
b101110 s
b101110 #"
15
#365000
05
#370000
b1 e
b1 &"
b1 z
b1 y
b1 4
b1 A
b110111 p
1Z
b1 r
b1 K
b1 T
b1 q
1V
1]
0`
b1 h
1W
0_
b0 f
b110111 l
b110111 d
b0 [
b110110 N
b110110 w
b1 D
b1 g
b1 %"
b101111 @
b101111 s
b101111 #"
b110111 k
b110110 }
b110110 3
b110110 <
b110110 G
b110110 b
b110110 |
b110110 '"
b110110 t
15
#375000
05
#380000
b0 e
b0 &"
b10000 z
b10000 y
b10000 4
b10000 A
0Z
b0 r
b100000000010000 K
b100000000010000 T
b100000000010000 q
0Y
0V
0]
b100000000010000 h
0W
1!"
1F
1c
b1001 f
b110111 l
b0 p
b110111 d
b0 [
b110111 N
b110111 w
b10010000000000000100000000010000 D
b10010000000000000100000000010000 g
b10010000000000000100000000010000 %"
b110111 k
b110111 }
b110111 3
b110111 <
b110111 G
b110111 b
b110111 |
b110111 '"
b110111 t
b110000 @
b110000 s
b110000 #"
15
#385000
05
#390000
b1000110 l
b111000 d
b111 [
b1000110 k
b1111 e
b1111 r
b1111 H
b1111 U
b1111 a
b1111 ?
b1111 R
b1111 ("
1>
1I
b1 &"
b1 z
b1 y
b1 4
b1 A
b100000000000001 K
b100000000000001 T
b100000000000001 q
1`
b100000000000001 h
0!"
0F
0c
1_
b1000 f
b10000000000000000100000000000001 D
b10000000000000000100000000000001 g
b10000000000000000100000000000001 %"
b110001 @
b110001 s
b110001 #"
b110111 u
15
#395000
05
#400000
0I
b0 H
b0 U
b0 a
b0 ?
b0 R
b0 ("
b0 e
b1010 &"
b101010 z
b101010 y
b101010 4
b101010 A
0{
0B
0>
1\
b0 r
b101010 K
b101010 T
b101010 q
0`
b101010 h
0_
b1110 f
b1111 l
b1111 d
b0 [
b1111 N
b1111 w
b11100000000000000000000000101010 D
b11100000000000000000000000101010 g
b11100000000000000000000000101010 %"
b1111 k
b1111 }
b1111 3
b1111 <
b1111 G
b1111 b
b1111 |
b1111 '"
b1111 t
b110010 @
b110010 s
b110010 #"
15
#405000
05
#410000
b1111 H
b1111 U
b1111 a
b1111 ?
b1111 R
b1111 ("
1>
1I
b1 &"
b1 z
b1 y
b1 4
b1 A
0\
b100000000000001 K
b100000000000001 T
b100000000000001 q
b100000000000001 h
1!"
1F
1c
b1001 f
b1110 l
b1110 d
b1110 N
b1110 w
b10010000000000000100000000000001 D
b10010000000000000100000000000001 g
b10010000000000000100000000000001 %"
b101010 @
b101010 s
b101010 #"
b1110 k
b1110 }
b1110 3
b1110 <
b1110 G
b1110 b
b1110 |
b1110 '"
b1110 t
15
#415000
05
#420000
b11000 l
b100 d
b1010 [
b11000 k
b1010 e
b1010 r
1`
b111 &"
b110111 z
b110111 y
b110111 4
b110111 A
1{
1B
0>
b0 h
0!"
0F
0c
1_
b110111 K
b110111 T
b110111 q
b1010 H
b1010 U
b1010 a
b1010 f
b0 ?
b0 R
b0 ("
b10100000000000000000000000000000 D
b10100000000000000000000000000000 g
b10100000000000000000000000000000 %"
b1110 "
b101011 @
b101011 s
b101011 #"
15
#425000
05
#430000
b1000 [
b1001000 e
b1001000 r
b1001000 H
b1001000 U
b1001000 a
b1010010 l
b1000010 d
b1010 N
b1010 w
b1001000 C
b1001000 S
b1001000 ~
b1001000 $"
b101100 @
b101100 s
b101100 #"
b1010010 k
b1010 }
b1010 3
b1010 <
b1010 G
b1010 b
b1010 |
b1010 '"
b1010 t
15
#435000
05
#440000
1x
b0 e
1L
b0 H
b0 U
b0 a
0`
b0 &"
b1000000000000 z
b1000000000000 y
b1000000000000 4
b1000000000000 A
0{
0B
b0 r
b101000000000000 h
1!"
1F
1c
0_
b101000000000000 K
b101000000000000 T
b101000000000000 q
b1001 f
b1001000 l
b1001000 d
b0 [
b1001000 N
b1001000 w
b10010000000000000101000000000000 D
b10010000000000000101000000000000 g
b10010000000000000101000000000000 %"
b1001000 k
b1001000 }
b1001000 3
b1001000 <
b1001000 G
b1001000 b
b1001000 |
b1001000 '"
b1001000 t
b101101 @
b101101 s
b101101 #"
15
#445000
05
